{
  "project_info": {
    "project_number": "675832048558",
    "firebase_url": "https://clever-environs-138522.firebaseio.com",
    "project_id": "clever-environs-138522",
    "storage_bucket": "clever-environs-138522.appspot.com"
  },
  "client": [
    {
      "client_info": {
        "mobilesdk_app_id": "1:675832048558:android:586ee9df7f57cfc3",
        "android_client_info": {
          "package_name": "com.example.googlemapszoomradius"
        }
      },
      "oauth_client": [
        {
          "client_id": "675832048558-upoi3rhokll8t4jiio45bsk2ji8kme1b.apps.googleusercontent.com",
          "client_type": 1,
          "android_info": {
            "package_name": "com.example.googlemapszoomradius",
            "certificate_hash": "a06f934f3289b783b956df0b94d87bff9e4eabea"
          }
        },
        {
          "client_id": "675832048558-s88uc2ubtjjqi8cb27eba0delh5he28n.apps.googleusercontent.com",
          "client_type": 1,
          "android_info": {
            "package_name": "com.example.googlemapszoomradius",
            "certificate_hash": "4d959856eb3e7ce13be46cd9c321884e005a1e46"
          }
        },
        {
          "client_id": "675832048558-rblskjdopkkn7iihjfet01n9og7178fe.apps.googleusercontent.com",
          "client_type": 3
        }
      ],
      "api_key": [
        {
          "current_key": "AIzaSyC7aNV_Rg8lQ8udMenbDEd_E8SdeLRPNmY"
        }
      ],
      "services": {
        "analytics_service": {
          "status": 1
        },
        "appinvite_service": {
          "status": 2,
          "other_platform_oauth_client": [
            {
              "client_id": "675832048558-rblskjdopkkn7iihjfet01n9og7178fe.apps.googleusercontent.com",
              "client_type": 3
            }
          ]
        },
        "ads_service": {
          "status": 2
        }
      }
    }
  ],
  "configuration_version": "1"
}